2019-06-02 17:54:19,715 ERROR: Exception on /admin/doctor/edit/ [GET] [in /home/alex/PycharmProjects/medcenter/venv/lib/python3.6/site-packages/flask/app.py:1780]
Traceback (most recent call last):
  File "/home/alex/PycharmProjects/medcenter/venv/lib/python3.6/site-packages/sqlalchemy/engine/base.py", line 1244, in _execute_context
    cursor, statement, parameters, context
  File "/home/alex/PycharmProjects/medcenter/venv/lib/python3.6/site-packages/sqlalchemy/engine/default.py", line 550, in do_execute
    cursor.execute(statement, parameters)
sqlite3.OperationalError: no such table: session

The above exception was the direct cause of the following exception:

Traceback (most recent call last):
  File "/home/alex/PycharmProjects/medcenter/venv/lib/python3.6/site-packages/flask/app.py", line 2311, in wsgi_app
    response = self.full_dispatch_request()
  File "/home/alex/PycharmProjects/medcenter/venv/lib/python3.6/site-packages/flask/app.py", line 1834, in full_dispatch_request
    rv = self.handle_user_exception(e)
  File "/home/alex/PycharmProjects/medcenter/venv/lib/python3.6/site-packages/flask/app.py", line 1737, in handle_user_exception
    reraise(exc_type, exc_value, tb)
  File "/home/alex/PycharmProjects/medcenter/venv/lib/python3.6/site-packages/flask/_compat.py", line 36, in reraise
    raise value
  File "/home/alex/PycharmProjects/medcenter/venv/lib/python3.6/site-packages/flask/app.py", line 1832, in full_dispatch_request
    rv = self.dispatch_request()
  File "/home/alex/PycharmProjects/medcenter/venv/lib/python3.6/site-packages/flask/app.py", line 1818, in dispatch_request
    return self.view_functions[rule.endpoint](**req.view_args)
  File "/home/alex/PycharmProjects/medcenter/venv/lib/python3.6/site-packages/flask_admin/base.py", line 69, in inner
    return self._run_view(f, *args, **kwargs)
  File "/home/alex/PycharmProjects/medcenter/venv/lib/python3.6/site-packages/flask_admin/base.py", line 368, in _run_view
    return fn(self, *args, **kwargs)
  File "/home/alex/PycharmProjects/medcenter/venv/lib/python3.6/site-packages/flask_admin/model/base.py", line 2155, in edit_view
    return_url=return_url)
  File "/home/alex/PycharmProjects/medcenter/venv/lib/python3.6/site-packages/flask_admin/base.py", line 308, in render
    return render_template(template, **kwargs)
  File "/home/alex/PycharmProjects/medcenter/venv/lib/python3.6/site-packages/flask/templating.py", line 135, in render_template
    context, ctx.app)
  File "/home/alex/PycharmProjects/medcenter/venv/lib/python3.6/site-packages/flask/templating.py", line 117, in _render
    rv = template.render(context)
  File "/home/alex/PycharmProjects/medcenter/venv/lib/python3.6/site-packages/jinja2/asyncsupport.py", line 76, in render
    return original_render(self, *args, **kwargs)
  File "/home/alex/PycharmProjects/medcenter/venv/lib/python3.6/site-packages/jinja2/environment.py", line 1008, in render
    return self.environment.handle_exception(exc_info, True)
  File "/home/alex/PycharmProjects/medcenter/venv/lib/python3.6/site-packages/jinja2/environment.py", line 780, in handle_exception
    reraise(exc_type, exc_value, tb)
  File "/home/alex/PycharmProjects/medcenter/venv/lib/python3.6/site-packages/jinja2/_compat.py", line 37, in reraise
    raise value.with_traceback(tb)
  File "/home/alex/PycharmProjects/medcenter/venv/lib/python3.6/site-packages/flask_admin/templates/bootstrap2/admin/model/edit.html", line 3, in top-level template code
    {% from 'admin/lib.html' import extra with context %} {# backward compatible #}
  File "/home/alex/PycharmProjects/medcenter/venv/lib/python3.6/site-packages/flask_admin/templates/bootstrap2/admin/master.html", line 1, in top-level template code
    {% extends admin_base_template %}
  File "/home/alex/PycharmProjects/medcenter/venv/lib/python3.6/site-packages/flask_admin/templates/bootstrap2/admin/base.html", line 35, in top-level template code
    {% block page_body %}
  File "/home/alex/PycharmProjects/medcenter/venv/lib/python3.6/site-packages/flask_admin/templates/bootstrap2/admin/base.html", line 64, in block "page_body"
    {% block body %}{% endblock %}
  File "/home/alex/PycharmProjects/medcenter/venv/lib/python3.6/site-packages/flask_admin/templates/bootstrap2/admin/model/edit.html", line 32, in block "body"
    {% block edit_form %}
  File "/home/alex/PycharmProjects/medcenter/venv/lib/python3.6/site-packages/flask_admin/templates/bootstrap2/admin/model/edit.html", line 33, in block "edit_form"
    {{ lib.render_form(form, return_url, extra(), form_opts) }}
  File "/home/alex/PycharmProjects/medcenter/venv/lib/python3.6/site-packages/jinja2/runtime.py", line 579, in _invoke
    rv = self._func(*arguments)
  File "/home/alex/PycharmProjects/medcenter/venv/lib/python3.6/site-packages/flask_admin/templates/bootstrap2/admin/lib.html", line 212, in template
    {% call form_tag(action=action) %}
  File "/home/alex/PycharmProjects/medcenter/venv/lib/python3.6/site-packages/jinja2/runtime.py", line 579, in _invoke
    rv = self._func(*arguments)
  File "/home/alex/PycharmProjects/medcenter/venv/lib/python3.6/site-packages/flask_admin/templates/bootstrap2/admin/lib.html", line 191, in template
    {{ caller() }}
  File "/home/alex/PycharmProjects/medcenter/venv/lib/python3.6/site-packages/jinja2/runtime.py", line 579, in _invoke
    rv = self._func(*arguments)
  File "/home/alex/PycharmProjects/medcenter/venv/lib/python3.6/site-packages/flask_admin/templates/bootstrap2/admin/lib.html", line 213, in template
    {{ render_form_fields(form, form_opts=form_opts) }}
  File "/home/alex/PycharmProjects/medcenter/venv/lib/python3.6/site-packages/jinja2/runtime.py", line 579, in _invoke
    rv = self._func(*arguments)
  File "/home/alex/PycharmProjects/medcenter/venv/lib/python3.6/site-packages/flask_admin/templates/bootstrap2/admin/lib.html", line 183, in template
    {{ render_field(form, f, kwargs) }}
  File "/home/alex/PycharmProjects/medcenter/venv/lib/python3.6/site-packages/jinja2/runtime.py", line 579, in _invoke
    rv = self._func(*arguments)
  File "/home/alex/PycharmProjects/medcenter/venv/lib/python3.6/site-packages/flask_admin/templates/bootstrap2/admin/lib.html", line 137, in template
    {{ field(**kwargs)|safe }}
  File "/home/alex/PycharmProjects/medcenter/venv/lib/python3.6/site-packages/wtforms/fields/core.py", line 155, in __call__
    return self.meta.render_field(self, kwargs)
  File "/home/alex/PycharmProjects/medcenter/venv/lib/python3.6/site-packages/wtforms/meta.py", line 56, in render_field
    return field.widget(field, **render_kw)
  File "/home/alex/PycharmProjects/medcenter/venv/lib/python3.6/site-packages/flask_admin/form/widgets.py", line 28, in __call__
    return super(Select2Widget, self).__call__(field, **kwargs)
  File "/home/alex/PycharmProjects/medcenter/venv/lib/python3.6/site-packages/wtforms/widgets/core.py", line 323, in __call__
    for val, label, selected in field.iter_choices():
  File "/home/alex/PycharmProjects/medcenter/venv/lib/python3.6/site-packages/flask_admin/contrib/sqla/fields.py", line 169, in iter_choices
    for pk, obj in self._get_object_list():
  File "/home/alex/PycharmProjects/medcenter/venv/lib/python3.6/site-packages/flask_admin/contrib/sqla/fields.py", line 103, in _get_object_list
    self._object_list = [(text_type(get_pk(obj)), obj) for obj in query]
  File "/home/alex/PycharmProjects/medcenter/venv/lib/python3.6/site-packages/sqlalchemy/orm/query.py", line 3323, in __iter__
    return self._execute_and_instances(context)
  File "/home/alex/PycharmProjects/medcenter/venv/lib/python3.6/site-packages/sqlalchemy/orm/query.py", line 3348, in _execute_and_instances
    result = conn.execute(querycontext.statement, self._params)
  File "/home/alex/PycharmProjects/medcenter/venv/lib/python3.6/site-packages/sqlalchemy/engine/base.py", line 988, in execute
    return meth(self, multiparams, params)
  File "/home/alex/PycharmProjects/medcenter/venv/lib/python3.6/site-packages/sqlalchemy/sql/elements.py", line 287, in _execute_on_connection
    return connection._execute_clauseelement(self, multiparams, params)
  File "/home/alex/PycharmProjects/medcenter/venv/lib/python3.6/site-packages/sqlalchemy/engine/base.py", line 1107, in _execute_clauseelement
    distilled_params,
  File "/home/alex/PycharmProjects/medcenter/venv/lib/python3.6/site-packages/sqlalchemy/engine/base.py", line 1248, in _execute_context
    e, statement, parameters, cursor, context
  File "/home/alex/PycharmProjects/medcenter/venv/lib/python3.6/site-packages/sqlalchemy/engine/base.py", line 1466, in _handle_dbapi_exception
    util.raise_from_cause(sqlalchemy_exception, exc_info)
  File "/home/alex/PycharmProjects/medcenter/venv/lib/python3.6/site-packages/sqlalchemy/util/compat.py", line 383, in raise_from_cause
    reraise(type(exception), exception, tb=exc_tb, cause=cause)
  File "/home/alex/PycharmProjects/medcenter/venv/lib/python3.6/site-packages/sqlalchemy/util/compat.py", line 128, in reraise
    raise value.with_traceback(tb)
  File "/home/alex/PycharmProjects/medcenter/venv/lib/python3.6/site-packages/sqlalchemy/engine/base.py", line 1244, in _execute_context
    cursor, statement, parameters, context
  File "/home/alex/PycharmProjects/medcenter/venv/lib/python3.6/site-packages/sqlalchemy/engine/default.py", line 550, in do_execute
    cursor.execute(statement, parameters)
sqlalchemy.exc.OperationalError: (sqlite3.OperationalError) no such table: session
[SQL: SELECT session.id AS session_id, session.timestamp AS session_timestamp, session.doctor_id AS session_doctor_id, session.user_id AS session_user_id 
FROM session]
(Background on this error at: http://sqlalche.me/e/e3q8)
2019-06-02 17:54:41,634 INFO: Medcenter startup [in /home/alex/PycharmProjects/medcenter/app/__init__.py:102]
