2019-06-02 14:54:22,258 INFO: Medcenter startup [in /home/alex/PycharmProjects/medcenter/app/__init__.py:102]
2019-06-02 14:55:30,246 INFO: Medcenter startup [in /home/alex/PycharmProjects/medcenter/app/__init__.py:102]
2019-06-02 14:55:43,068 INFO: Medcenter startup [in /home/alex/PycharmProjects/medcenter/app/__init__.py:102]
2019-06-02 14:55:50,834 INFO: Medcenter startup [in /home/alex/PycharmProjects/medcenter/app/__init__.py:102]
2019-06-02 15:02:27,852 INFO: Medcenter startup [in /home/alex/PycharmProjects/medcenter/app/__init__.py:102]
2019-06-02 15:04:17,761 INFO: Medcenter startup [in /home/alex/PycharmProjects/medcenter/app/__init__.py:102]
2019-06-02 17:54:00,248 INFO: Medcenter startup [in /home/alex/PycharmProjects/medcenter/app/__init__.py:102]
