2019-06-02 20:50:53,998 ERROR: Exception on /admin/promotion/ [GET] [in /home/alex/PycharmProjects/medcenter/venv/lib/python3.6/site-packages/flask/app.py:1780]
Traceback (most recent call last):
  File "/home/alex/PycharmProjects/medcenter/venv/lib/python3.6/site-packages/flask/app.py", line 2311, in wsgi_app
    response = self.full_dispatch_request()
  File "/home/alex/PycharmProjects/medcenter/venv/lib/python3.6/site-packages/flask/app.py", line 1834, in full_dispatch_request
    rv = self.handle_user_exception(e)
  File "/home/alex/PycharmProjects/medcenter/venv/lib/python3.6/site-packages/flask/app.py", line 1737, in handle_user_exception
    reraise(exc_type, exc_value, tb)
  File "/home/alex/PycharmProjects/medcenter/venv/lib/python3.6/site-packages/flask/_compat.py", line 36, in reraise
    raise value
  File "/home/alex/PycharmProjects/medcenter/venv/lib/python3.6/site-packages/flask/app.py", line 1832, in full_dispatch_request
    rv = self.dispatch_request()
  File "/home/alex/PycharmProjects/medcenter/venv/lib/python3.6/site-packages/flask/app.py", line 1818, in dispatch_request
    return self.view_functions[rule.endpoint](**req.view_args)
  File "/home/alex/PycharmProjects/medcenter/venv/lib/python3.6/site-packages/flask_admin/base.py", line 69, in inner
    return self._run_view(f, *args, **kwargs)
  File "/home/alex/PycharmProjects/medcenter/venv/lib/python3.6/site-packages/flask_admin/base.py", line 368, in _run_view
    return fn(self, *args, **kwargs)
  File "/home/alex/PycharmProjects/medcenter/venv/lib/python3.6/site-packages/flask_admin/model/base.py", line 2056, in index_view
    return_url=self._get_list_url(view_args),
  File "/home/alex/PycharmProjects/medcenter/venv/lib/python3.6/site-packages/flask_admin/base.py", line 308, in render
    return render_template(template, **kwargs)
  File "/home/alex/PycharmProjects/medcenter/venv/lib/python3.6/site-packages/flask/templating.py", line 135, in render_template
    context, ctx.app)
  File "/home/alex/PycharmProjects/medcenter/venv/lib/python3.6/site-packages/flask/templating.py", line 117, in _render
    rv = template.render(context)
  File "/home/alex/PycharmProjects/medcenter/venv/lib/python3.6/site-packages/jinja2/asyncsupport.py", line 76, in render
    return original_render(self, *args, **kwargs)
  File "/home/alex/PycharmProjects/medcenter/venv/lib/python3.6/site-packages/jinja2/environment.py", line 1008, in render
    return self.environment.handle_exception(exc_info, True)
  File "/home/alex/PycharmProjects/medcenter/venv/lib/python3.6/site-packages/jinja2/environment.py", line 780, in handle_exception
    reraise(exc_type, exc_value, tb)
  File "/home/alex/PycharmProjects/medcenter/venv/lib/python3.6/site-packages/jinja2/_compat.py", line 37, in reraise
    raise value.with_traceback(tb)
  File "/home/alex/PycharmProjects/medcenter/venv/lib/python3.6/site-packages/flask_admin/templates/bootstrap2/admin/model/list.html", line 6, in top-level template code
    {% import 'admin/model/row_actions.html' as row_actions with context %}
  File "/home/alex/PycharmProjects/medcenter/venv/lib/python3.6/site-packages/flask_admin/templates/bootstrap2/admin/master.html", line 1, in top-level template code
    {% extends admin_base_template %}
  File "/home/alex/PycharmProjects/medcenter/venv/lib/python3.6/site-packages/flask_admin/templates/bootstrap2/admin/base.html", line 35, in top-level template code
    {% block page_body %}
  File "/home/alex/PycharmProjects/medcenter/venv/lib/python3.6/site-packages/flask_admin/templates/bootstrap2/admin/base.html", line 64, in block "page_body"
    {% block body %}{% endblock %}
  File "/home/alex/PycharmProjects/medcenter/venv/lib/python3.6/site-packages/flask_admin/templates/bootstrap2/admin/model/list.html", line 69, in block "body"
    {% block model_list_table %}
  File "/home/alex/PycharmProjects/medcenter/venv/lib/python3.6/site-packages/flask_admin/templates/bootstrap2/admin/model/list.html", line 117, in block "model_list_table"
    {% block list_row scoped %}
  File "/home/alex/PycharmProjects/medcenter/venv/lib/python3.6/site-packages/flask_admin/templates/bootstrap2/admin/model/list.html", line 145, in block "list_row"
    {{ get_value(row, c) }}
  File "/home/alex/PycharmProjects/medcenter/venv/lib/python3.6/site-packages/flask_admin/model/base.py", line 1861, in get_list_value
    self.column_type_formatters,
  File "/home/alex/PycharmProjects/medcenter/venv/lib/python3.6/site-packages/flask_admin/model/base.py", line 1826, in _get_list_value
    value = column_fmt(self, context, model, name)
  File "/home/alex/PycharmProjects/medcenter/app/__init__.py", line 56, in _list_thumbnail
    if not model.path:
AttributeError: 'Promotion' object has no attribute 'path'
2019-06-02 20:55:12,815 ERROR: Exception on /admin/promotion/ [GET] [in /home/alex/PycharmProjects/medcenter/venv/lib/python3.6/site-packages/flask/app.py:1780]
Traceback (most recent call last):
  File "/home/alex/PycharmProjects/medcenter/venv/lib/python3.6/site-packages/flask/app.py", line 2311, in wsgi_app
    response = self.full_dispatch_request()
  File "/home/alex/PycharmProjects/medcenter/venv/lib/python3.6/site-packages/flask/app.py", line 1834, in full_dispatch_request
    rv = self.handle_user_exception(e)
  File "/home/alex/PycharmProjects/medcenter/venv/lib/python3.6/site-packages/flask/app.py", line 1737, in handle_user_exception
    reraise(exc_type, exc_value, tb)
  File "/home/alex/PycharmProjects/medcenter/venv/lib/python3.6/site-packages/flask/_compat.py", line 36, in reraise
    raise value
  File "/home/alex/PycharmProjects/medcenter/venv/lib/python3.6/site-packages/flask/app.py", line 1832, in full_dispatch_request
    rv = self.dispatch_request()
  File "/home/alex/PycharmProjects/medcenter/venv/lib/python3.6/site-packages/flask/app.py", line 1818, in dispatch_request
    return self.view_functions[rule.endpoint](**req.view_args)
  File "/home/alex/PycharmProjects/medcenter/venv/lib/python3.6/site-packages/flask_admin/base.py", line 69, in inner
    return self._run_view(f, *args, **kwargs)
  File "/home/alex/PycharmProjects/medcenter/venv/lib/python3.6/site-packages/flask_admin/base.py", line 368, in _run_view
    return fn(self, *args, **kwargs)
  File "/home/alex/PycharmProjects/medcenter/venv/lib/python3.6/site-packages/flask_admin/model/base.py", line 2056, in index_view
    return_url=self._get_list_url(view_args),
  File "/home/alex/PycharmProjects/medcenter/venv/lib/python3.6/site-packages/flask_admin/base.py", line 308, in render
    return render_template(template, **kwargs)
  File "/home/alex/PycharmProjects/medcenter/venv/lib/python3.6/site-packages/flask/templating.py", line 135, in render_template
    context, ctx.app)
  File "/home/alex/PycharmProjects/medcenter/venv/lib/python3.6/site-packages/flask/templating.py", line 117, in _render
    rv = template.render(context)
  File "/home/alex/PycharmProjects/medcenter/venv/lib/python3.6/site-packages/jinja2/asyncsupport.py", line 76, in render
    return original_render(self, *args, **kwargs)
  File "/home/alex/PycharmProjects/medcenter/venv/lib/python3.6/site-packages/jinja2/environment.py", line 1008, in render
    return self.environment.handle_exception(exc_info, True)
  File "/home/alex/PycharmProjects/medcenter/venv/lib/python3.6/site-packages/jinja2/environment.py", line 780, in handle_exception
    reraise(exc_type, exc_value, tb)
  File "/home/alex/PycharmProjects/medcenter/venv/lib/python3.6/site-packages/jinja2/_compat.py", line 37, in reraise
    raise value.with_traceback(tb)
  File "/home/alex/PycharmProjects/medcenter/venv/lib/python3.6/site-packages/flask_admin/templates/bootstrap2/admin/model/list.html", line 6, in top-level template code
    {% import 'admin/model/row_actions.html' as row_actions with context %}
  File "/home/alex/PycharmProjects/medcenter/venv/lib/python3.6/site-packages/flask_admin/templates/bootstrap2/admin/master.html", line 1, in top-level template code
    {% extends admin_base_template %}
  File "/home/alex/PycharmProjects/medcenter/venv/lib/python3.6/site-packages/flask_admin/templates/bootstrap2/admin/base.html", line 35, in top-level template code
    {% block page_body %}
  File "/home/alex/PycharmProjects/medcenter/venv/lib/python3.6/site-packages/flask_admin/templates/bootstrap2/admin/base.html", line 64, in block "page_body"
    {% block body %}{% endblock %}
  File "/home/alex/PycharmProjects/medcenter/venv/lib/python3.6/site-packages/flask_admin/templates/bootstrap2/admin/model/list.html", line 69, in block "body"
    {% block model_list_table %}
  File "/home/alex/PycharmProjects/medcenter/venv/lib/python3.6/site-packages/flask_admin/templates/bootstrap2/admin/model/list.html", line 117, in block "model_list_table"
    {% block list_row scoped %}
  File "/home/alex/PycharmProjects/medcenter/venv/lib/python3.6/site-packages/flask_admin/templates/bootstrap2/admin/model/list.html", line 145, in block "list_row"
    {{ get_value(row, c) }}
  File "/home/alex/PycharmProjects/medcenter/venv/lib/python3.6/site-packages/flask_admin/model/base.py", line 1861, in get_list_value
    self.column_type_formatters,
  File "/home/alex/PycharmProjects/medcenter/venv/lib/python3.6/site-packages/flask_admin/model/base.py", line 1826, in _get_list_value
    value = column_fmt(self, context, model, name)
  File "/home/alex/PycharmProjects/medcenter/app/__init__.py", line 56, in _list_thumbnail
    if not model.path:
AttributeError: 'Promotion' object has no attribute 'path'
