2019-06-02 18:02:40,565 INFO: Medcenter startup [in /home/alex/PycharmProjects/medcenter/app/__init__.py:102]
2019-06-02 18:04:51,062 INFO: Medcenter startup [in /home/alex/PycharmProjects/medcenter/app/__init__.py:102]
2019-06-02 19:41:45,088 INFO: Medcenter startup [in /home/alex/PycharmProjects/medcenter/app/__init__.py:102]
2019-06-02 19:43:55,986 INFO: Medcenter startup [in /home/alex/PycharmProjects/medcenter/app/__init__.py:102]
2019-06-02 19:44:39,089 INFO: Medcenter startup [in /home/alex/PycharmProjects/medcenter/app/__init__.py:102]
2019-06-02 20:38:58,377 INFO: Medcenter startup [in /home/alex/PycharmProjects/medcenter/app/__init__.py:119]
2019-06-02 20:39:51,837 INFO: Medcenter startup [in /home/alex/PycharmProjects/medcenter/app/__init__.py:119]
2019-06-02 20:39:56,123 ERROR: Exception on /admin/promotion/ [GET] [in /home/alex/PycharmProjects/medcenter/venv/lib/python3.6/site-packages/flask/app.py:1780]
Traceback (most recent call last):
  File "/home/alex/PycharmProjects/medcenter/venv/lib/python3.6/site-packages/sqlalchemy/engine/base.py", line 1244, in _execute_context
    cursor, statement, parameters, context
  File "/home/alex/PycharmProjects/medcenter/venv/lib/python3.6/site-packages/sqlalchemy/engine/default.py", line 550, in do_execute
    cursor.execute(statement, parameters)
sqlite3.OperationalError: no such column: promotion.description

The above exception was the direct cause of the following exception:

Traceback (most recent call last):
  File "/home/alex/PycharmProjects/medcenter/venv/lib/python3.6/site-packages/flask/app.py", line 2311, in wsgi_app
    response = self.full_dispatch_request()
  File "/home/alex/PycharmProjects/medcenter/venv/lib/python3.6/site-packages/flask/app.py", line 1834, in full_dispatch_request
    rv = self.handle_user_exception(e)
  File "/home/alex/PycharmProjects/medcenter/venv/lib/python3.6/site-packages/flask/app.py", line 1737, in handle_user_exception
    reraise(exc_type, exc_value, tb)
  File "/home/alex/PycharmProjects/medcenter/venv/lib/python3.6/site-packages/flask/_compat.py", line 36, in reraise
    raise value
  File "/home/alex/PycharmProjects/medcenter/venv/lib/python3.6/site-packages/flask/app.py", line 1832, in full_dispatch_request
    rv = self.dispatch_request()
  File "/home/alex/PycharmProjects/medcenter/venv/lib/python3.6/site-packages/flask/app.py", line 1818, in dispatch_request
    return self.view_functions[rule.endpoint](**req.view_args)
  File "/home/alex/PycharmProjects/medcenter/venv/lib/python3.6/site-packages/flask_admin/base.py", line 69, in inner
    return self._run_view(f, *args, **kwargs)
  File "/home/alex/PycharmProjects/medcenter/venv/lib/python3.6/site-packages/flask_admin/base.py", line 368, in _run_view
    return fn(self, *args, **kwargs)
  File "/home/alex/PycharmProjects/medcenter/venv/lib/python3.6/site-packages/flask_admin/model/base.py", line 1960, in index_view
    view_args.search, view_args.filters, page_size=page_size)
  File "/home/alex/PycharmProjects/medcenter/venv/lib/python3.6/site-packages/flask_admin/contrib/sqla/view.py", line 1070, in get_list
    query = query.all()
  File "/home/alex/PycharmProjects/medcenter/venv/lib/python3.6/site-packages/sqlalchemy/orm/query.py", line 3167, in all
    return list(self)
  File "/home/alex/PycharmProjects/medcenter/venv/lib/python3.6/site-packages/sqlalchemy/orm/query.py", line 3323, in __iter__
    return self._execute_and_instances(context)
  File "/home/alex/PycharmProjects/medcenter/venv/lib/python3.6/site-packages/sqlalchemy/orm/query.py", line 3348, in _execute_and_instances
    result = conn.execute(querycontext.statement, self._params)
  File "/home/alex/PycharmProjects/medcenter/venv/lib/python3.6/site-packages/sqlalchemy/engine/base.py", line 988, in execute
    return meth(self, multiparams, params)
  File "/home/alex/PycharmProjects/medcenter/venv/lib/python3.6/site-packages/sqlalchemy/sql/elements.py", line 287, in _execute_on_connection
    return connection._execute_clauseelement(self, multiparams, params)
  File "/home/alex/PycharmProjects/medcenter/venv/lib/python3.6/site-packages/sqlalchemy/engine/base.py", line 1107, in _execute_clauseelement
    distilled_params,
  File "/home/alex/PycharmProjects/medcenter/venv/lib/python3.6/site-packages/sqlalchemy/engine/base.py", line 1248, in _execute_context
    e, statement, parameters, cursor, context
  File "/home/alex/PycharmProjects/medcenter/venv/lib/python3.6/site-packages/sqlalchemy/engine/base.py", line 1466, in _handle_dbapi_exception
    util.raise_from_cause(sqlalchemy_exception, exc_info)
  File "/home/alex/PycharmProjects/medcenter/venv/lib/python3.6/site-packages/sqlalchemy/util/compat.py", line 383, in raise_from_cause
    reraise(type(exception), exception, tb=exc_tb, cause=cause)
  File "/home/alex/PycharmProjects/medcenter/venv/lib/python3.6/site-packages/sqlalchemy/util/compat.py", line 128, in reraise
    raise value.with_traceback(tb)
  File "/home/alex/PycharmProjects/medcenter/venv/lib/python3.6/site-packages/sqlalchemy/engine/base.py", line 1244, in _execute_context
    cursor, statement, parameters, context
  File "/home/alex/PycharmProjects/medcenter/venv/lib/python3.6/site-packages/sqlalchemy/engine/default.py", line 550, in do_execute
    cursor.execute(statement, parameters)
sqlalchemy.exc.OperationalError: (sqlite3.OperationalError) no such column: promotion.description
[SQL: SELECT promotion.id AS promotion_id, promotion.name AS promotion_name, promotion.description AS promotion_description, promotion.image AS promotion_image, promotion.active AS promotion_active, promotion.price AS promotion_price 
FROM promotion
 LIMIT ? OFFSET ?]
[parameters: (20, 0)]
(Background on this error at: http://sqlalche.me/e/e3q8)
2019-06-02 20:40:37,935 INFO: Medcenter startup [in /home/alex/PycharmProjects/medcenter/app/__init__.py:119]
2019-06-02 20:40:42,094 INFO: Medcenter startup [in /home/alex/PycharmProjects/medcenter/app/__init__.py:119]
2019-06-02 20:40:45,267 INFO: Medcenter startup [in /home/alex/PycharmProjects/medcenter/app/__init__.py:119]
2019-06-02 20:46:41,878 INFO: Medcenter startup [in /home/alex/PycharmProjects/medcenter/app/__init__.py:119]
2019-06-02 20:50:10,300 INFO: Medcenter startup [in /home/alex/PycharmProjects/medcenter/app/__init__.py:120]
